<?xml version="1.0" encoding="UTF-8"?>
<CustomTab xmlns="http://soap.sforce.com/2006/04/metadata">
    <description>Coveo Configuration Page</description>
    <icon>Coveo/Icon.png</icon>
    <label>Coveo Configuration</label>
    <mobileReady>false</mobileReady>
    <motif>Custom293: TV Widescreen</motif>
    <page>Configuration</page>
</CustomTab>
