<?xml version="1.0" encoding="UTF-8"?>
<CustomTab xmlns="http://soap.sforce.com/2006/04/metadata">
    <label>Tenable Coaching</label>
    <mobileReady>false</mobileReady>
    <motif>Custom51: Apple</motif>
    <page>BRNSHRK__BrainsharkCoaching</page>
</CustomTab>
