<?xml version="1.0" encoding="UTF-8"?>
<CustomTab xmlns="http://soap.sforce.com/2006/04/metadata">
    <customObject>true</customObject>
    <icon>KimbleApplicationDocuments/Kimble32.png</icon>
    <mobileReady>false</mobileReady>
    <motif>Custom299: TV Widescreen</motif>
</CustomTab>
