<?xml version="1.0" encoding="UTF-8"?>
<CustomTab xmlns="http://soap.sforce.com/2006/04/metadata">
    <label>LeanData</label>
    <mobileReady>true</mobileReady>
    <motif>Custom9: Lightning</motif>
    <page>Dashboard</page>
</CustomTab>
